%YAML 1.1
%TAG !u! tag:unity3d.com,2011:
--- !u!134 &13400000
PhysicMaterial:
  m_ObjectHideFlags: 0
  m_CorrespondingSourceObject: {fileID: 0}
  m_PrefabInstance: {fileID: 0}
  m_PrefabAsset: {fileID: 0}
  m_Name: BouncyBall
  dynamicFriction: 12.94
  staticFriction: 25.59
  bounciness: 1
  frictionCombine: 2
  bounceCombine: 2
